<?xml version="1.0" encoding="UTF-8" standalone="no"?>
<!DOCTYPE svg PUBLIC "-//W3C//DTD SVG 1.1//EN"
 "http://www.w3.org/Graphics/SVG/1.1/DTD/svg11.dtd">
<!-- Generated by graphviz version 2.40.1 (20161225.0304)
 -->
<!-- Title: %3 Pages: 1 -->
<svg width="185pt" height="338pt"
 viewBox="0.00 0.00 185.00 338.00" xmlns="http://www.w3.org/2000/svg" xmlns:xlink="http://www.w3.org/1999/xlink">
<g id="graph0" class="graph" transform="scale(1 1) rotate(0) translate(4 334)">
<title>%3</title>
<polygon fill="#ffffff" stroke="transparent" points="-4,4 -4,-334 181,-334 181,4 -4,4"/>
<text text-anchor="middle" x="88.5" y="-314.8" font-family="Helvetica,sans-Serif" font-size="14.00" fill="#000000">Strategies</text>
<g id="clust1" class="cluster">
<title>cluster1</title>
<polygon fill="none" stroke="#000000" points="8,-226 8,-300 169,-300 169,-226 8,-226"/>
<text text-anchor="middle" x="88.5" y="-284.8" font-family="Helvetica,sans-Serif" font-size="14.00" fill="#000000">Diachronic</text>
</g>
<g id="clust2" class="cluster">
<title>cluster2</title>
<polygon fill="none" stroke="#000000" points="8,-144 8,-218 169,-218 169,-144 8,-144"/>
<text text-anchor="middle" x="88.5" y="-202.8" font-family="Helvetica,sans-Serif" font-size="14.00" fill="#000000">Isolated</text>
</g>
<g id="clust3" class="cluster">
<title>cluster3</title>
<polygon fill="none" stroke="#000000" points="8,-8 8,-136 114.5,-136 114.5,-8 8,-8"/>
<text text-anchor="middle" x="61.25" y="-120.8" font-family="Helvetica,sans-Serif" font-size="14.00" fill="#000000">Synchronic</text>
</g>
<!-- s1 -->
<g id="node1" class="node">
<title>s1</title>
<ellipse fill="#66c2a5" stroke="#000000" cx="34" cy="-88" rx="18" ry="18"/>
</g>
<!-- sinv1 -->
<!-- s1&#45;&gt;sinv1 -->
<g id="edge4" class="edge">
<title>s1&#45;&gt;sinv1</title>
<path fill="none" stroke="#000000" d="M52.1686,-88C65.6089,-88 83.4853,-88 94.8706,-88"/>
<polygon fill="#000000" stroke="#000000" points="95.179,-91.5001 105.179,-88 95.179,-84.5001 95.179,-91.5001"/>
</g>
<!-- solo -->
<g id="node2" class="node">
<title>solo</title>
<ellipse fill="#fc8d62" stroke="#000000" cx="34" cy="-170" rx="18" ry="18"/>
</g>
<!-- soloinv1 -->
<!-- solo&#45;&gt;soloinv1 -->
<g id="edge3" class="edge">
<title>solo&#45;&gt;soloinv1</title>
<path fill="none" stroke="#000000" d="M52.1244,-170C78.7681,-170 127.703,-170 149.5107,-170"/>
<polygon fill="#000000" stroke="#000000" points="149.6672,-173.5001 159.6672,-170 149.6671,-166.5001 149.6672,-173.5001"/>
</g>
<!-- d1 -->
<g id="node3" class="node">
<title>d1</title>
<ellipse fill="#8da0cb" stroke="#000000" cx="34" cy="-252" rx="18" ry="18"/>
</g>
<!-- d2 -->
<g id="node4" class="node">
<title>d2</title>
<ellipse fill="#cbd5e8" stroke="#000000" cx="106" cy="-252" rx="18" ry="18"/>
</g>
<!-- d1&#45;&gt;d2 -->
<g id="edge1" class="edge">
<title>d1&#45;&gt;d2</title>
<path fill="none" stroke="#000000" d="M52.1686,-252C59.869,-252 69.0257,-252 77.5834,-252"/>
<polygon fill="#000000" stroke="#000000" points="77.5868,-255.5001 87.5867,-252 77.5867,-248.5001 77.5868,-255.5001"/>
</g>
<!-- dinv1 -->
<!-- d2&#45;&gt;dinv1 -->
<g id="edge2" class="edge">
<title>d2&#45;&gt;dinv1</title>
<path fill="none" stroke="#000000" d="M124.1477,-252C132.6786,-252 142.5541,-252 149.8572,-252"/>
<polygon fill="#000000" stroke="#000000" points="149.9803,-255.5001 159.9802,-252 149.9802,-248.5001 149.9803,-255.5001"/>
</g>
<!-- s2 -->
<g id="node5" class="node">
<title>s2</title>
<ellipse fill="#b3e2cd" stroke="#000000" cx="34" cy="-34" rx="18" ry="18"/>
</g>
<!-- sinv2 -->
<!-- s2&#45;&gt;sinv2 -->
<g id="edge5" class="edge">
<title>s2&#45;&gt;sinv2</title>
<path fill="none" stroke="#000000" d="M52.1686,-34C65.6089,-34 83.4853,-34 94.8706,-34"/>
<polygon fill="#000000" stroke="#000000" points="95.179,-37.5001 105.179,-34 95.179,-30.5001 95.179,-37.5001"/>
</g>
</g>
</svg>
